{
   "version": "1.0",
   "name": "FLP_PAMCAM_2018_082T122440",
   "items": [
      {
         "class": "observation",
         "name": "FLP_PAMCAM_2018_082T122440",
         "center": "Earth",
         "trajectoryFrame": {
            "type": "BodyFixed",
            "body": "Earth"
         },
         "bodyFrame": {
            "type": "BodyFixed",
            "body": "Earth"
         },
         "geometry": {
            "type": "Observations",
            "sensor": "FLP_PAMCAM",
            "groups": [
               {
                  "startTime": "2018-03-23 12:24:40.000",
                  "endTime": "2018-03-23 12:24:41.000",
                  "obsRate": 10
               }
            ],
            "footprintColor": [
               1,
               0.5,
               0
            ],
            "footprintOpacity": 0.4,
            "showResWithColor": true,
            "sideDivisions": 125,
            "alongTrackDivisions": 500,
            "shadowVolumeScaleFactor": 1.75,
            "fillInObservations": false
         }
      }
   ]
}