{
   "version": "1.0",
   "name": "OSIRIS_2018_079T234210",
   "items": [
      {
         "class": "observation",
         "name": "OSIRIS_2018_079T234210",
         "center": "Earth",
         "trajectoryFrame": {
            "type": "BodyFixed",
            "body": "Earth"
         },
         "bodyFrame": {
            "type": "BodyFixed",
            "body": "Earth"
         },
         "geometry": {
            "type": "Observations",
            "sensor": "FLP_OSIRIS",
            "groups": [
               {
                  "startTime": "2018-03-20 23:42:10.000",
                  "endTime": "2018-03-20 23:52:24.000",
                  "obsRate": 10
               }
            ],
            "footprintColor": [
               1,
               0.5,
               0
            ],
            "footprintOpacity": 0.4,
            "showResWithColor": true,
            "sideDivisions": 125,
            "alongTrackDivisions": 500,
            "shadowVolumeScaleFactor": 1.75,
            "fillInObservations": false
         }
      }
   ]
}